{
  "key": "botler",
  "name": "Botler",
  "description": "Your very own bot butler!",
  "vendor": {
    "name": "Khanh Nguyen",
    "url": "https://bitbucket.org/khanhfucius"
  },
  "links": {
    "self": "{{localBaseUrl}}/atlassian-connect.json",
    "homepage": "{{localBaseUrl}}"
  },
  "capabilities": {
    "hipchatApiConsumer": {
      "avatar": "{{localBaseUrl}}/img/botler.svg",
      "scopes": [
        "send_notification",
        "view_room",
        "admin_room"
      ]
    },
    "installable": {
      "callbackUrl": "{{localBaseUrl}}/installable"
    },
    "glance": [
      {
        "name": {
          "value": "BOTLER"
        },
        "key": "botler.glance",        
        "target": "botler.sidebar",
        "icon": {
          "url": "{{localBaseUrl}}/img/botler_icon.svg",
          "url@2x": "{{localBaseUrl}}/img/botler_icon.svg"
        }
      }
    ],
    "webPanel": [
      {
        "key": "botler.sidebar",
        "name": {
          "value": "BOTLER"
        },
        "location": "hipchat.sidebar.right",
        "url": "{{localBaseUrl}}/sidebar"
      }
    ],
    "dialog": [
      {
        "key": "botler.dialog",
        "title": {
          "value": "BOTLER"
        },
        "url": "{{localBaseUrl}}/dialog",
        "options": {
          "style": "normal",
          "primaryAction": {
            "name": {
              "value": "Create"
            },
            "key": "botler.dialog.action",
            "enabled": true
          },
          "size": {
            "width": "80%",
            "height": "95%"
          }
        }
      }
    ]
  }
}
