<?xml version="1.0" encoding="utf-8"?>
<!-- Generator: Adobe Illustrator 19.2.1, SVG Export Plug-In . SVG Version: 6.00 Build 0)  -->
<svg version="1.1" id="Layer_1" xmlns="http://www.w3.org/2000/svg" xmlns:xlink="http://www.w3.org/1999/xlink" x="0px" y="0px"
	 viewBox="0 0 500 500" style="enable-background:new 0 0 500 500;" xml:space="preserve">
<style type="text/css">
	.st0{fill:#B4DFF3;}
	.st1{fill:#1F5081;}
	.st2{fill:#3572B0;}
	.st3{fill:#F2534C;}
	.st4{fill:#CCD9EB;}
	.st5{fill:#F7C342;stroke:#1F5081;stroke-width:8;stroke-miterlimit:10;}
	.st6{fill:#DA4A45;}
	.st7{fill:#C18B11;}
	.st8{fill:#F7C342;stroke:#1F5081;stroke-width:9;stroke-miterlimit:10;}
</style>
<path id="Fill-1" class="st0" d="M495.1,250c0,135.4-109.7,245.1-245.1,245.1C114.6,495.1,4.9,385.4,4.9,250S114.6,4.9,250,4.9
	C385.4,4.9,495.1,114.6,495.1,250L495.1,250L495.1,250z"/>
<path id="Fill-3" class="st1" d="M250,9.8C117.6,9.8,9.8,117.6,9.8,250S117.6,490.2,250,490.2S490.2,382.4,490.2,250
	S382.4,9.8,250,9.8 M250,500C112.2,500,0,387.8,0,250S112.2,0,250,0s250,112.2,250,250S387.9,500,250,500"/>
<path id="Fill-6" class="st2" d="M379.6,266c-2.1-37.5-21.9-70.2-51.2-90.1c-14.8-10.4-27-13.6-27-13.6s0,0,0,0
	c-9.2-3.2-18.9-5.3-29-6.1v-48.1c8.2-3.6,14-11.8,14-21.4c0-12.9-10.4-23.3-23.3-23.3c-12.9,0-23.3,10.5-23.3,23.3
	c0,9.6,5.8,17.8,14,21.4v48.1c-57.9,4.6-103.9,51.4-107.2,109.7c-0.1,0.6-0.2,1.3-0.2,2v23.3h233.4v-23.3
	C379.8,267.3,379.7,266.6,379.6,266"/>
<path id="Fill-8" class="st2" d="M368.1,345h-15.3h-14.4c0-0.5,0.2-1,0.2-1.6v-10.1c0-9-7.4-16.3-16.3-16.3h-18.7
	c-9,0-16.3,7.4-16.3,16.3v10.1c0,0.5,0.1,1,0.2,1.6H238c0.1-0.5,0.2-1,0.2-1.6v-10.1c0-9-7.4-16.3-16.3-16.3h-18.7
	c-9,0-16.3,7.4-16.3,16.3v10.1c0,0.5,0.1,1,0.2,1.6H158c-6.4,0-11.7,5.3-11.7,11.7v58.1v11.9v11.7h233.4v-11.7v-70
	C379.8,350.2,374.5,345,368.1,345"/>
<path id="Fill-10" class="st3" d="M158.8,264h-25c-11.5,0-20.8-9.4-20.8-20.8v-25c0-11.5,9.4-20.8,20.8-20.8h25
	c11.5,0,20.8,9.4,20.8,20.8v25C179.7,254.7,170.3,264,158.8,264"/>
<path id="Fill-12" class="st1" d="M129.4,202.3c-6.3,0-11.4,5.1-11.4,11.4v34c0,6.3,5.1,11.4,11.4,11.4h34c6.3,0,11.4-5.1,11.4-11.4
	v-34c0-6.3-5.1-11.4-11.4-11.4H129.4L129.4,202.3z M163.3,268.9h-34c-11.7,0-21.2-9.5-21.2-21.2v-34c0-11.7,9.5-21.2,21.2-21.2h34
	c11.7,0,21.2,9.5,21.2,21.2v34C184.6,259.4,175.1,268.9,163.3,268.9L163.3,268.9L163.3,268.9z"/>
<path id="Fill-14" class="st2" d="M384.3,277.1h-25c-11.5,0-20.8-9.4-20.8-20.8v-25c0-11.5,9.4-20.8,20.8-20.8h25
	c11.5,0,20.8,9.4,20.8,20.8v25C405.2,267.7,395.8,277.1,384.3,277.1"/>
<path id="Fill-16" class="st3" d="M371.3,264h-25c-11.5,0-20.8-9.4-20.8-20.8v-25c0-11.5,9.4-20.8,20.8-20.8h25
	c11.5,0,20.8,9.4,20.8,20.8v25C392.1,254.7,382.7,264,371.3,264"/>
<path id="Fill-18" class="st1" d="M341.8,202.3c-6.3,0-11.4,5.1-11.4,11.4v34c0,6.3,5.1,11.4,11.4,11.4h34c6.3,0,11.4-5.1,11.4-11.4
	v-34c0-6.3-5.1-11.4-11.4-11.4H341.8L341.8,202.3z M375.8,268.9h-34c-11.7,0-21.2-9.5-21.2-21.2v-34c0-11.7,9.5-21.2,21.2-21.2h34
	c11.7,0,21.2,9.5,21.2,21.2v34C397,259.4,387.5,268.9,375.8,268.9L375.8,268.9L375.8,268.9z"/>
<path id="Fill-20" class="st3" d="M204.3,340.2h-9.7c-11.5,0-20.8-9.4-20.8-20.8v-1.1c0-11.5,9.4-20.8,20.8-20.8h9.7
	c11.5,0,20.8,9.4,20.8,20.8v1.1C225.1,330.8,215.7,340.2,204.3,340.2"/>
<path id="Fill-22" class="st1" d="M190.1,302.3c-6.3,0-11.4,5.1-11.4,11.4v10.1c0,6.3,5.1,11.4,11.4,11.4h18.7
	c6.3,0,11.4-5.1,11.4-11.4v-10.1c0-6.3-5.1-11.4-11.4-11.4H190.1L190.1,302.3z M208.8,345.1h-18.7c-11.7,0-21.2-9.5-21.2-21.2v-10.1
	c0-11.7,9.5-21.2,21.2-21.2h18.7c11.7,0,21.2,9.5,21.2,21.2v10.1C230,335.5,220.5,345.1,208.8,345.1L208.8,345.1L208.8,345.1z"/>
<path id="Fill-24" class="st3" d="M304.6,340.2H295c-11.5,0-20.8-9.4-20.8-20.8v-1.1c0-11.5,9.4-20.8,20.8-20.8h9.7
	c11.5,0,20.8,9.4,20.8,20.8v1.1C325.5,330.8,316.1,340.2,304.6,340.2"/>
<path id="Fill-26" class="st1" d="M290.5,302.3c-6.3,0-11.4,5.1-11.4,11.4v10.1c0,6.3,5.1,11.4,11.4,11.4h18.7
	c6.3,0,11.4-5.1,11.4-11.4v-10.1c0-6.3-5.1-11.4-11.4-11.4H290.5L290.5,302.3z M309.1,345.1h-18.7c-11.7,0-21.2-9.5-21.2-21.2v-10.1
	c0-11.7,9.5-21.2,21.2-21.2h18.7c11.7,0,21.2,9.5,21.2,21.2v10.1C330.4,335.5,320.8,345.1,309.1,345.1L309.1,345.1L309.1,345.1z"/>
<path id="Fill-28" class="st3" d="M366.7,418.7H133.3v-11.7v-70c0-6.4,5.2-11.7,11.7-11.7H355c6.4,0,11.7,5.3,11.7,11.7v70V418.7
	L366.7,418.7z"/>
<path id="Fill-30" class="st1" d="M138.2,413.8h223.6V337c0-3.7-3-6.8-6.8-6.8H145c-3.7,0-6.8,3-6.8,6.8V413.8L138.2,413.8z
	 M371.6,423.6H128.4V337c0-9.1,7.4-16.6,16.6-16.6H355c9.1,0,16.6,7.4,16.6,16.6V423.6L371.6,423.6z"/>
<path id="Fill-32" class="st3" d="M366.7,271.7v-23.3c0-0.7-0.1-1.3-0.2-2C363.1,185,312.2,136.3,250,136.3S136.9,185,133.5,246.4
	c-0.1,0.6-0.2,1.3-0.2,2v23.3H366.7L366.7,271.7z"/>
<path id="Fill-34" class="st1" d="M138.2,266.8h223.6v-18.4c0-0.4-0.1-0.8-0.1-1.1l-0.1-0.5c-3.3-59.1-52.3-105.5-111.6-105.5
	s-108.3,46.3-111.6,105.5l-0.1,0.6c-0.1,0.4-0.1,0.7-0.1,1.1V266.8L138.2,266.8z M371.6,276.6H128.4v-28.2c0-0.9,0.1-1.8,0.2-2.5
	c3.7-64.2,57-114.4,121.4-114.4s117.7,50.2,121.4,114.4c0.1,0.7,0.2,1.6,0.2,2.5V276.6L371.6,276.6z"/>
<path id="Fill-36" class="st4" d="M240.7,137.1h18.7V67h-18.7V137.1L240.7,137.1z"/>
<path id="Fill-38" class="st1" d="M245.6,132.1h8.9V71.9h-8.9V132.1L245.6,132.1z M235.8,142h28.5V62.1h-28.5V142L235.8,142z"/>
<path id="Fill-39" class="st5" d="M273.3,67.3c0,12.9-10.4,23.3-23.3,23.3c-12.9,0-23.3-10.4-23.3-23.3s10.4-23.3,23.3-23.3
	C262.9,43.9,273.3,54.4,273.3,67.3"/>
<path id="Fill-40" class="st1" d="M250,48.8c-10.2,0-18.4,8.3-18.4,18.4s8.3,18.4,18.4,18.4c10.2,0,18.4-8.3,18.4-18.4
	S260.2,48.8,250,48.8 M250,95.5c-15.6,0-28.2-12.7-28.2-28.2c0-15.6,12.7-28.2,28.2-28.2s28.2,12.7,28.2,28.2
	C278.2,82.8,265.6,95.5,250,95.5"/>
<path id="Fill-41" class="st6" d="M133.5,246.4h206c0,0,13.8-64.7-51.1-103.6c0,0,78.4,19.9,78.4,128.9H133.3L133.5,246.4
	L133.5,246.4z"/>
<path id="Fill-42" class="st1" d="M138.2,266.8h223.6v-18.4c0-0.4-0.1-0.8-0.1-1.1l-0.1-0.5c-3.3-59.1-52.3-105.5-111.6-105.5
	s-108.3,46.3-111.6,105.5l-0.1,0.6c-0.1,0.4-0.1,0.7-0.1,1.1V266.8L138.2,266.8z M371.6,276.6H128.4v-28.2c0-0.9,0.1-1.8,0.2-2.5
	c3.7-64.2,57-114.4,121.4-114.4s117.7,50.2,121.4,114.4c0.1,0.7,0.2,1.6,0.2,2.5V276.6L371.6,276.6z"/>
<path id="Fill-46" class="st6" d="M133.3,418.7h233.4v-11.7v-70c0-6.4-5.2-11.7-11.7-11.7h-15.3v69.8H133.3v11.9V418.7L133.3,418.7z
	"/>
<path id="Fill-47" class="st1" d="M138.2,413.8h223.6V337c0-3.7-3-6.8-6.8-6.8H145c-3.7,0-6.8,3-6.8,6.8V413.8L138.2,413.8z
	 M371.6,423.6H128.4V337c0-9.1,7.4-16.6,16.6-16.6H355c9.1,0,16.6,7.4,16.6,16.6V423.6L371.6,423.6z"/>
<path id="Fill-48" class="st3" d="M250,495.1c51,0,98.4-15.6,137.6-42.3H112.4C151.6,479.5,199,495.1,250,495.1"/>
<path id="Fill-49" class="st1" d="M129.3,457.7c36.5,21.3,77.9,32.5,120.7,32.5s84.1-11.2,120.7-32.5H129.3L129.3,457.7z M250,500
	c-50.3,0-98.9-14.9-140.4-43.1l-13.2-9h307.1l-13.2,9C348.9,485.1,300.3,500,250,500L250,500L250,500z"/>
<path id="Fill-50" class="st6" d="M160.9,350.6c0,3.6-2.9,6.5-6.5,6.5c-3.6,0-6.5-2.9-6.5-6.5s2.9-6.5,6.5-6.5
	C157.9,344.1,160.9,347,160.9,350.6"/>
<path id="Fill-51" class="st6" d="M193.5,350.6c0,3.6-2.9,6.5-6.5,6.5c-3.6,0-6.5-2.9-6.5-6.5s2.9-6.5,6.5-6.5
	C190.6,344.1,193.5,347,193.5,350.6"/>
<path id="Fill-52" class="st6" d="M226.2,350.6c0,3.6-2.9,6.5-6.5,6.5c-3.6,0-6.5-2.9-6.5-6.5s2.9-6.5,6.5-6.5
	C223.3,344.1,226.2,347,226.2,350.6"/>
<path id="Fill-53" class="st6" d="M258.9,350.6c0,3.6-2.9,6.5-6.5,6.5c-3.6,0-6.5-2.9-6.5-6.5s2.9-6.5,6.5-6.5
	C256,344.1,258.9,347,258.9,350.6"/>
<path id="Fill-54" class="st6" d="M291.6,350.6c0,3.6-2.9,6.5-6.5,6.5c-3.6,0-6.5-2.9-6.5-6.5s2.9-6.5,6.5-6.5
	C288.7,344.1,291.6,347,291.6,350.6"/>
<path id="Fill-55" class="st6" d="M324.3,350.6c0,3.6-2.9,6.5-6.5,6.5c-3.6,0-6.5-2.9-6.5-6.5s2.9-6.5,6.5-6.5
	C321.3,344.1,324.3,347,324.3,350.6"/>
<path id="Fill-56" class="st7" d="M356.9,350.6c0,3.6-2.9,6.5-6.5,6.5c-3.6,0-6.5-2.9-6.5-6.5s2.9-6.5,6.5-6.5
	C354,344.1,356.9,347,356.9,350.6"/>
<path class="st8" d="M324,239.3H177.8c-8,0-14.5-6.5-14.5-14.5v0c0-8,6.5-14.5,14.5-14.5H324c8,0,14.5,6.5,14.5,14.5v0
	C338.5,232.8,332,239.3,324,239.3z"/>
</svg>
